{
  "cviceni": {
    "version": {
      "global": "<%= version %>",
      "content": 2
    },
    "katalog": [
      "test",
      "public"
    ],
    "language": "cs",
    "slug": "promeny-obce-kyselka",
    "nazev": "Proměny obce Kyselka",
    "autor": [
      "Tereza Vávrová"
    ],
    "klicovaSlova": {
      "rvp": [
        "důsledky druhé světové války"
      ],
      "koncept": [
        "migrace",
        "dějiny ve veřejném prostoru"
      ],
      "b4": [
        "trvání a změna"
      ],
      "historylab": [
        "porovnáváme prameny"
      ]
    },
    "casovaOsa": {
      "roky": [
        2014
      ],
      "epochy": [
        {
          "refId": "czech",
          "obdobi": [
            "Česká republika v integrující se Evropě"
          ]
        },
        {
          "refId": "world",
          "obdobi": []
        }
      ]
    },
    "anotace": {
      "ucitel": "Cvičení pracuje s dvojicí fotografií zachycujících stejné místo (lázeňské budovy v obci Kyselka) v rozmezí let 1925 a 2004. Žáci srovnávají obě fotografie, hledají a označují v nich shody a rozdíly. Na základě jednoduchého popisu se zamýšlejí nad možnými příčinami proměny obce a života v ní. Cvičení lze spojit s výkladem celospolečenských změn po roce 1945 (nucené vysídlení, modernizace ad.).",
      "verejna": "Dvě fotografie, stejné místo, časový rozdíl osmdesát let. Co všechno se tady změnilo? K čemu sloužil ten honosný dům? A co dělá ten chlápek za plotem? Pečlivě si obě fotografie prohlédněte, najděte na nich co nejvíc rozdílů a objevte stopy, které vám pomohou zjistit, jak a proč se v průběhu 20. století proměnil život v jedné obci."
    },
    "trvani": 25,
    "obtiznost": "nízká",
    "funkce": [
      "lupa",
      "text",
      "svg",
      "znacky"
    ],
    "pdf": {
      "doporucenyPostup": "promeny-obce-kyselka.pdf"
    },
    "uvodniObrazek": "promeny-obce-kyselka/pic-00-1280w.jpg",
    "id": 16,
    "color": {
      "rgb": {
        "r": 141,
        "g": 141,
        "b": 141
      },
      "hsv": {
        "h": 0,
        "s": 0,
        "v": 55.29
      }
    }
  },
  "slajd": [
    {
      "zadani": {
        "hlavni": "Na fotografiích vidíte stejné místo. Prohlédněte si obě fotografie.",
        "rozsirujici": ""
      },
      "napoveda": {
        "aktivity": [
          "lupa"
        ],
        "text": "Při kliknutí levým tlačítkem do obrazu lupa přiblíží část obrazu ve výřezu."
      },
      "prameny": [
        "promeny-obce-kyselka/pic-00-1280w.jpg",
        "promeny-obce-kyselka/pic-01-1280w.jpg"
      ],
      "popisky": [
        "Bad Giesshübl – lázně Heinricha Mattoniho, 1925. Zdroj: Antikomplex, z.s.",
        "Lázně Kyselka, 2004. Zdroj: Antikomplex, z.s."
      ]
    },
    {
      "class": [
        "half-slide-previous"
      ],
      "zadani": {
        "hlavni": "Co se změnilo?",
        "rozsirujici": "Červeně ve fotografiích označte, co se změnilo, a modře, co zůstalo stejné. Popište označené body."
      },
      "napoveda": {
        "aktivity": [
          "svg"
        ],
        "text": "Kliknutím na snímek levým tlačítkem myši označujete bod. Nakliknutím na bod pravým tlačítkem otevřete menu s nabídkou úkonů: změnit barvu bodu, (T) doplnit textový komentář, (X) smazat nakliknutý objekt."
      },
      "svg": {
        "soubory": [
          {
            "id": "svg-1",
            "soubor": "promeny-obce-kyselka/pic-00-1024w.jpg",
            "funkce": [
              "text",
              "znacky"
            ]
          },
          {
            "id": "svg-2",
            "soubor": "promeny-obce-kyselka/pic-01-1024w.jpg",
            "funkce": [
              "text",
              "znacky"
            ]
          }
        ]
      },
      "popisky": [
        "Bad Giesshübl – lázně Heinricha Mattoniho, 1925. Zdroj: Antikomplex, z.s.",
        "Lázně Kyselka, 2004. Zdroj: Antikomplex, z.s."
      ]
    },
    {
      "class": [
        "half-slide-active"
      ],
      "zadani": {
        "hlavni": "Proč se to změnilo?",
        "rozsirujici": ""
      },
      "napoveda": {
        "aktivity": [
          "text"
        ],
        "text": "Do boxu pro text zapisujete odpověď na otázku, nebo jiný komentář (dle zadání)."
      },
      "uzivatelskyText": {
        "otazky": [
          {
            "id": "text-1",
            "zadani": "Zamyslete se nad tím, co vedlo k vyznačeným změnám. Jaké události mohly mít na tuto proměnu vliv a proč?",
            "instrukce": "Myslím si, že…",
            "maxDelka": 1200
          },
          {
            "id": "text-2",
            "zadani": "Zjistěte z fotografií, jak se změnila funkce budov a život v obci.",
            "instrukce": "Myslím si, že…",
            "maxDelka": 1200
          }
        ]
      }
    }
  ]
}