{
  "cviceni": {
    "version": {
      "global": "<%= version %>",
      "content": 1
    },
    "id": 14,
    "slug": "srpen-1968",
    "nazev": "Srpen 1968",
    "autor": [],
    "klicovaSlova": {
      "rvp": [
        "1968"
      ],
      "koncept": [],
      "b4": [],
      "historylab": []
    },
    "casovaOsa": {
      "roky": [],
      "epochy": [
        {
          "refId": "czech",
          "obdobi": []
        },
        {
          "refId": "world",
          "obdobi": []
        }
      ]
    },
    "obtiznost": "",
    "trvani": 0,
    "funkce": [
      "lupa",
      "text",
      "svg",
      "kresleni"
    ],
    "pdf": {
      "doporucenyPostup": "srpen-1968.pdf"
    },
    "uvodniObrazek": "srpen-1968/pic-00-1280w.jpg",
    "color": {
      "rgb": {
        "r": 154,
        "g": 154,
        "b": 154
      },
      "hsv": {
        "h": 0,
        "s": 0,
        "v": 60.39
      }
    }
  },
  "slajd": [
    {
      "class": [
        "half-slide-previous"
      ],
      "zadani": {
        "hlavni": "Prohlédněte si trojici fotografií Josefa Koudelky.",
        "rozsirujici": "Fotografie zachycují příjezd vojsk Varšavské smlouvy do Prahy na konci srpna 1968."
      },
      "napoveda": {
        "aktivity": [
          "lupa"
        ],
        "text": ""
      },
      "prameny": [
        "srpen-1968/pic-00-1280w.jpg",
        "srpen-1968/pic-01-1280w.jpg",
        "srpen-1968/pic-02-1280w.jpg"
      ]
    },
    {
      "class": [
        "half-slide-active"
      ],
      "zadani": {
        "hlavni": "Na základě fotografií krátce popište, co se na konci srpna 1968 dělo v pražských ulicích.",
        "rozsirujici": ""
      },
      "napoveda": {
        "aktivity": [
          "text"
        ],
        "text": ""
      },
      "prameny": [
        "srpen-1968/pic-00-1280w.jpg",
        "srpen-1968/pic-01-1280w.jpg",
        "srpen-1968/pic-02-1280w.jpg"
      ],
      "uzivatelskyText": {
        "otazky": [
          {
            "id": "text-1",
            "zadani": "",
            "instrukce": "Co se dělo v pražských ulicích?",
            "minDelka": 0,
            "maxDelka": 400
          }
        ]
      }
    },
    {
      "class": [
        "half-slide-previous"
      ],
      "zadani": {
        "hlavni": "Z jaké pozice fotograf daný výjev vyfotil?",
        "rozsirujici": "Popište úhel pohledu u každé fotografie: Situaci sleduji seshora (z nadhledu). Situaci sleduji zespodu (z podhledu). Situaci sleduji v úrovni očí."
      },
      "napoveda": {
        "aktivity": [
          "lupa",
          "text"
        ],
        "text": ""
      },
      "prameny": [
        "srpen-1968/pic-00-1280w.jpg",
        "srpen-1968/pic-01-1280w.jpg",
        "srpen-1968/pic-02-1280w.jpg"
      ],
      "uzivatelskyText": {
        "otazky": [
          {
            "id": "text-2",
            "zadani": "",
            "instrukce": "Z jaké pozice sledujete scénu na první fotografii?",
            "minDelka": 0,
            "maxDelka": 400
          },
          {
            "id": "text-3",
            "zadani": "",
            "instrukce": "Z jaké pozice sledujete scénu na druhé fotografii?",
            "minDelka": 0,
            "maxDelka": 400
          },
          {
            "id": "text-4",
            "zadani": "",
            "instrukce": "Z jaké pozice sledujete scénu na třetí fotografii?",
            "minDelka": 0,
            "maxDelka": 400
          }
        ]
      }
    },
    {
      "class": [
        "half-slide-active"
      ],
      "zadani": {
        "hlavni": "Znovu si prohlédněte fotografie, které jste označili jako vyfocené z podhledu a nadhledu.",
        "rozsirujici": ""
      },
      "napoveda": {
        "aktivity": [
          "text"
        ],
        "text": ""
      },
      "uzivatelskyText": {
        "otazky": [
          {
            "id": "text-5",
            "zadani": "Kdy myslíte, že je vhodné využít podhledu a vyfotit situaci zespodu (z podhledu)?",
            "instrukce": "Myslím si, že…",
            "minDelka": 0,
            "maxDelka": 400
          },
          {
            "id": "text-6",
            "zadani": "Kdy je naopak dobré využít vyvýšeného místa a nadhledu?",
            "instrukce": "Myslím si, že…",
            "minDelka": 0,
            "maxDelka": 400
          }
        ]
      }
    }
  ]
}