{
  "cviceni": {
    "version": {
      "global": "<%= version %>",
      "content": 4
    },
    "katalog": [
      "test",
      "public"
    ],
    "language": "cs",
    "slug": "jeden-znak-dva-vyznamy",
    "nazev": "Jeden znak, dva významy",
    "autor": [
      "Petr Sedlák"
    ],
    "klicovaSlova": {
      "rvp": [
        "totalitní režimy"
      ],
      "koncept": [
        "vzpomínková kultura",
        "symboly"
      ],
      "b4": [
        "vztah k minulosti"
      ],
      "historylab": [
        "domýšlíme významy"
      ]
    },
    "casovaOsa": {
      "roky": [
        2013
      ],
      "epochy": [
        {
          "refId": "czech",
          "obdobi": [
            "Česká republika v integrující se Evropě"
          ]
        },
        {
          "refId": "world",
          "obdobi": []
        }
      ]
    },
    "anotace": {
      "ucitel": "Cvičení předkládá žákům pamětní minci k 50. výročí 17. listopadu 1939 a pamětní medaili k 24. výročí 17. listopadu 1989. Rub a líc obou objektů nabízí bohatou symboliku, která vyjadřuje význam připisovaný tomuto státnímu svátku před pádem komunistické diktatury a v současné době. Srovnání vizuálně shodné, ale významově odlišné symboliky ostnatého drátu přivádí žáky k zamyšlení, jak se změnil význam svátku v důsledku policejního zásahu proti demonstrantům 17. listopadu 1989.",
      "verejna": "Pamětní mince k 50. výročí 17. listopadu 1939 a pamětní medaile k 24. výročí 17. listopadu 1989. Prohlédněte si jejich rub a líc a pátrejte po symbolech, které vyjadřují, jaký význam měl mít 17. listopad jako státní svátek během komunistické diktatury a jaký může mít v současné době."
    },
    "trvani": 30,
    "obtiznost": "střední",
    "funkce": [
      "lupa",
      "text",
      "svg"
    ],
    "pdf": {
      "doporucenyPostup": "jeden-znak-dva-vyznamy.pdf"
    },
    "uvodniObrazek": "jeden-znak-dva-vyznamy/pic-02-1280w.jpg",
    "id": 57,
    "color": {
      "rgb": {
        "r": 206,
        "g": 200,
        "b": 181
      },
      "hsv": {
        "h": 46,
        "s": 12.14,
        "v": 80.78
      }
    }
  },
  "slajd": [
    {
      "zadani": {
        "hlavni": "Prohlédněte si pamětní minci, označte důležité prvky a popište je.",
        "rozsirujici": ""
      },
      "napoveda": {
        "aktivity": [
          "svg"
        ],
        "text": "Kliknutím na snímek levým tlačítkem myši označujete bod. Nakliknutím na bod pravým tlačítkem otevřete menu s nabídkou úkonů: změnit barvu bodu, (T) doplnit textový komentář, (X) smazat nakliknutý objekt."
      },
      "svg": {
        "soubory": [
          {
            "id": "svg-1",
            "soubor": "jeden-znak-dva-vyznamy/pic-00-1280w.jpg",
            "funkce": [
              "text",
              "znacky"
            ]
          }
        ]
      },
      "popisky": [
        "Pamětní mince k 50. výročí 17. listopadu 1939. Zdroj: Česká národní banka"
      ]
    },
    {
      "zadani": {
        "hlavni": "Prohlédněte si pamětní medaili, označte důležité prvky a popište je.",
        "rozsirujici": ""
      },
      "napoveda": {
        "aktivity": [
          "svg"
        ],
        "text": "Kliknutím na snímek levým tlačítkem myši označujete bod. Nakliknutím na bod pravým tlačítkem otevřete menu s nabídkou úkonů: změnit barvu bodu, (T) doplnit textový komentář, (X) smazat nakliknutý objekt."
      },
      "svg": {
        "soubory": [
          {
            "id": "svg-2",
            "soubor": "jeden-znak-dva-vyznamy/pic-01-1280w.jpg",
            "funkce": [
              "text",
              "znacky"
            ]
          }
        ]
      },
      "popisky": [
        "Pamětní medaile z roku 2013 k 24. výročí 17. listopadu 1989. Zdroj: Pražská mincovna"
      ]
    },
    {
      "zadani": {
        "hlavni": "Srovnejte pamětní minci a medaili.",
        "rozsirujici": "Červeně označte, co mají odlišné, modře označte, co je stejné. Popište označené body."
      },
      "napoveda": {
        "aktivity": [
          "svg"
        ],
        "text": "Kliknutím na snímek levým tlačítkem myši označujete bod. Nakliknutím na bod pravým tlačítkem otevřete menu s nabídkou úkonů: změnit barvu bodu, (T) doplnit textový komentář, (X) smazat nakliknutý objekt."
      },
      "svg": {
        "nastaveni": {
          "layout": "velka-galerie"
        },
        "galerie": [
          {
            "typ": "svg",
            "objekt": {
              "id": "svg-1-duplicate",
              "soubor": "jeden-znak-dva-vyznamy/pic-00-1280w.jpg",
              "duplikovat": [
                "svg-1"
              ]
            },
            "popisek": ""
          },
          {
            "typ": "svg",
            "objekt": {
              "id": "svg-2-duplicate",
              "soubor": "jeden-znak-dva-vyznamy/pic-01-1280w.jpg",
              "duplikovat": [
                "svg-2"
              ]
            },
            "popisek": ""
          }
        ],
        "soubory": [
          {
            "id": "svg-3",
            "soubor": "jeden-znak-dva-vyznamy/pic-02-1024w.jpg",
            "funkce": [
              "text",
              "znacky"
            ]
          }
        ]
      }
    },
    {
      "zadani": {
        "hlavni": "Přečtěte si texty a využijte informace k upřesnění vašeho srovnání mince a medaile.",
        "rozsirujici": ""
      },
      "napoveda": {
        "aktivity": [
          "text"
        ],
        "text": "Do boxu pro text zapisujete odpověď na otázku, nebo jiný komentář (dle zadání)."
      },
      "uzivatelskyText": {
        "layout": "velka-galerie",
        "galerie": [
          {
            "typ": "svg",
            "objekt": {
              "id": "svg-3-duplicate",
              "soubor": "jeden-znak-dva-vyznamy/pic-02-1024w.jpg",
              "duplikovat": [
                "svg-3"
              ]
            }
          },
          {
            "soubor": "jeden-znak-dva-vyznamy/pic-03-1280w.jpg",
            "popisek": "„Pamětní stříbrná stokoruna k 50. výročí událostí 17. listopadu 1939“. Numismatické listy, 1991"
          },
          {
            "soubor": "jeden-znak-dva-vyznamy/pic-04-1280w.jpg",
            "popisek": "Úvodní text k interaktivní mapě Železná opona, 2019. Zdroj: ÚSTR"
          },
          {
            "soubor": "jeden-znak-dva-vyznamy/pic-05-1024h.jpg",
            "popisek": "Bývalý koncentrační tábor Sachsenhausen, Německo. Zdroj: Kenneth Gjesdal [CC BY 2.0 (https://creativecommons.org/licenses/by/2.0/)]"
          },
          {
            "soubor": "jeden-znak-dva-vyznamy/pic-06-1280w.jpg",
            "popisek": "Část hraničního oplocení, které je zachováno pro muzejní účely. Šumava. Harold, Wikimedia Commons, CC BY-SA 3.0."
          },
          {
            "typ": "svg",
            "objekt": {
              "id": "svg-1-duplicate-2",
              "soubor": "jeden-znak-dva-vyznamy/pic-00-1280w.jpg",
              "duplikovat": [
                "svg-1"
              ]
            },
            "popisek": ""
          },
          {
            "typ": "svg",
            "objekt": {
              "id": "svg-2-duplicate-2",
              "soubor": "jeden-znak-dva-vyznamy/pic-01-1280w.jpg",
              "duplikovat": [
                "svg-2"
              ]
            },
            "popisek": ""
          }
        ],
        "otazky": [
          {
            "id": "text-1",
            "zadani": "Co znamená ostnatý drát na pamětní minci z roku 1989?",
            "instrukce": "Myslím si, že…",
            "minDelka": 10,
            "maxDelka": 400
          },
          {
            "id": "text-2",
            "zadani": "Co znamená ostnatý drát na pamětní medaili z roku 2013?",
            "instrukce": "Myslím si, že…",
            "minDelka": 10,
            "maxDelka": 400
          }
        ]
      }
    }
  ]
}