{
  "cviceni": {
    "version": {
      "global": "<%= version %>",
      "content": 1
    },
    "katalog": [
      ""
    ],
    "language": "cs",
    "slug": "meli-ho-odstranit-rtjf",
    "nazev": "Měli ho odstranit?",
    "autor": [
      "Bohumil Melichar"
    ],
    "klicovaSlova": {
      "rvp": [],
      "koncept": [],
      "b4": [],
      "historylab": []
    },
    "casovaOsa": {
      "roky": [],
      "epochy": [
        {
          "refId": "czech",
          "obdobi": []
        },
        {
          "refId": "world",
          "obdobi": []
        }
      ]
    },
    "anotace": {
      "ucitel": "",
      "verejna": "Víte, proč se pražskému Výstavišti říkalo Fučíkárna? Všimli jste si prázdného soklu, který zbyl po soše Julia Fučíka? Tušíte, kde je dnes? Zkuste s pomocí fotografií argumentovat, zda se pomník měl, či neměl odstranit."
    },
    "trvani": 30,
    "obtiznost": "",
    "funkce": [
      "lupa",
      "cteni",
      "text",
      "svg",
      "kresleni",
      "word-cloud"
    ],
    "pdf": {
      "doporucenyPostup": "meli-ho-odstranit-rtjf.pdf"
    },
    "uvodniObrazek": "meli-ho-odstranit-rtjf/pic-00-1024h.jpg",
    "id": 85,
    "color": {
      "rgb": {
        "r": 120,
        "g": 122,
        "b": 120
      },
      "hsv": {
        "h": 120,
        "s": 1.64,
        "v": 47.84
      }
    }
  },
  "slajd": [
    {
      "zadani": {
        "hlavni": "Prohlédněte si fotografii.",
        "rozsirujici": ""
      },
      "napoveda": {
        "aktivity": [
          "lupa"
        ],
        "text": "Při kliknutí levým tlačítkem do obrazu lupa přiblíží část obrazu ve výřezu."
      },
      "prameny": [
        "meli-ho-odstranit-rtjf/pic-00-1024h.jpg"
      ],
      "popisky": [
        "Pomník před Parkem kultury a oddechu Julia Fučíka. Zdroj: Archiv Národního muzea"
      ],
      "zpetnaVazba": {
        "text": "Mám prohlédnuto!"
      }
    },
    {
      "zadani": {
        "hlavni": "Označte na fotografii prvky tradičně spojované s Fučíkem.",
        "rozsirujici": "Využijte informace z výstavy."
      },
      "napoveda": {
        "aktivity": [
          "svg"
        ],
        "text": "Tahem myši levým tlačítkem kreslíte do obrazu. Nakliknutím na nakreslený tvar pravým tlačítkem otevřete menu s nabídkou úkonů: změnit barvu tvaru, (T) doplnit textový komentář, (X) smazat nakliknutý objekt."
      },
      "svg": {
        "soubory": [
          {
            "id": "svg-1",
            "soubor": "meli-ho-odstranit-rtjf/pic-00-1024h.jpg",
            "funkce": [
              "text",
              "kresleni"
            ]
          }
        ]
      },
      "popisky": [
        "Pomník před Parkem kultury a oddechu Julia Fučíka. Zdroj: Archiv Národního muzea"
      ]
    },
    {
      "zadani": {
        "hlavni": "Proč Výstaviště pojmenovali po Fučíkovi? Využijte informace z výstavy.",
        "rozsirujici": "Pomocí zvětšování a zmenšování určete důležitost důvodů pro pojmenování."
      },
      "napoveda": {
        "aktivity": [
          "word-cloud"
        ],
        "text": "Klikáním na znamenka -/+ zmenšujte či zvyšujete důležitost."
      },
      "klicovaSlova": {
        "klicovaSlova": [
          {
            "id": "klicova-slova-1",
            "funkce": "wordcloud",
            "tagy": [
              {
                "text": "byl to národní hrdina"
              },
              {
                "text": "byl symbolem mládí"
              },
              {
                "text": "hájil práva dělníků"
              },
              {
                "text": "byl oblíbený"
              },
              {
                "text": "byl spisovatel"
              },
              {
                "text": "byl komunista"
              },
              {
                "text": "bojoval proti nacismu"
              }
            ]
          }
        ]
      }
    },
    {
      "class": [
        "half-slide-previous"
      ],
      "zadani": {
        "hlavni": "Prozkoumejte galerii a zdůvodněte, proč pomník odstranili?",
        "rozsirujici": "Pomocí zvětšování a zmenšování určete důležitost důvodů pro odstranění pomníku."
      },
      "napoveda": {
        "aktivity": [
          "word-cloud"
        ],
        "text": "Klikáním na znamenka -/+ zmenšujte či zvyšujete důležitost."
      },
      "klicovaSlova": {
        "galerie": [
          {
            "soubor": "meli-ho-odstranit-rtjf/pic-02-1280w.jpg",
            "popisek": "Socha Miloslava Šonky byla před vchod do Park kultury a oddechu Julia Fučíka umístěna v roce 1979. Zdroj: Archiv Národního muzea"
          },
          {
            "soubor": "meli-ho-odstranit-rtjf/pic-03-1280w.jpg",
            "popisek": "Po odstranění sochy v roce 1990 zbyl na prostranství před dnešním Výstavištěm jen prázdný sokl. Foto: Bohumil Melichar. Zdroj: archiv autora"
          },
          {
            "soubor": "meli-ho-odstranit-rtjf/pic-01-1024h.jpg",
            "popisek": "V roce 2013 se pomník díky iniciativě Společnosti Julia Fučíka navázané na KSČM vrátil do veřejného prostoru. Se souhlasem magistrátu byl umístěn na Olšanské hřbitovy. Foto: Bohumil Melichar. Zdroj: archiv autora"
          }
        ],
        "klicovaSlova": [
          {
            "id": "klicova-slova-2",
            "funkce": "wordcloud",
            "tagy": [
              {
                "text": "byl symbolem ideologie"
              },
              {
                "text": "neměl uměleckou hodnotu"
              },
              {
                "text": "překážel výstavbě"
              },
              {
                "text": "kvůli lživému kultu"
              },
              {
                "text": "vyvolal odpor občanů"
              },
              {
                "text": "jako gesto očisty od komunismu"
              }
            ]
          }
        ]
      }
    },
    {
      "class": [
        "half-slide-active"
      ],
      "zadani": {
        "hlavni": "Formulujte argumenty pro a proti.",
        "rozsirujici": ""
      },
      "napoveda": {
        "aktivity": [
          "text"
        ],
        "text": "Do boxu pro text zapisujete odpověď na otázku, nebo jiný komentář (dle zadání)."
      },
      "uzivatelskyText": {
        "otazky": [
          {
            "id": "text-1",
            "zadani": "Měli pomník odstranit?",
            "instrukce": "Myslím si, že…",
            "minDelka": 10,
            "maxDelka": 400
          },
          {
            "id": "text-2",
            "zadani": "Měli pomník ponechat?",
            "instrukce": "Myslím si, že…",
            "minDelka": 10,
            "maxDelka": 400
          }
        ]
      }
    }
  ]
}