{
  "cviceni": {
    "version": {
      "global": "<%= version %>",
      "content": 1
    },
    "katalog": [
      "test"
    ],
    "language": "cs",
    "slug": "za-co-protestovali",
    "nazev": "Za co protestovali?",
    "autor": [
      "Andrea Průchová"
    ],
    "klicovaSlova": {
      "rvp": [
        "rasismus",
        "dekolonizace"
      ],
      "koncept": [
        "gender",
        "občanská společnost"
      ],
      "b4": [
        "vztah k minulosti"
      ],
      "historylab": [
        "hledáme klíčové detaily"
      ]
    },
    "casovaOsa": {
      "roky": [
        1968,
        2016
      ],
      "epochy": [
        {
          "refId": "czech",
          "obdobi": []
        },
        {
          "refId": "world",
          "obdobi": [
            "studená válka a rozpad koloniálních říší",
            "lidstvo na měnící se planetě"
          ]
        }
      ]
    },
    "anotace": {
      "ucitel": "Žáci jsou prostřednictvím čtveřice fotografií seznámeni s minulými i současnými protestními hnutími, jež zásadně ovlivnila a ovlivňují podobu současné společnosti a která poukazují na významné sociální problémy, jimž čelíme. Pomocí analýzy a další práce se žurnalistickými fotografiemi zachycujícími afroamerické, feministické a dekolonizační hnutí jsou žáci vedeni k hlubšímu porozumění obsahu těchto uskupení. Cvičení žáky vyzývá ke zhodnocení společenského dopadu těchto hnutí a reflexi vizuálních vyjadřovacích prostředků, jež tato hnutí používají.",
      "verejna": "Podívejte se na historické i současné fotografie zachycující významná protestní hnutí posledních sedmdesáti let. Jací lidé a proč se rozhodli vyjít do ulic? Jaké transparenty k tomu použili a jak byla jejich snaha úspěšná?"
    },
    "trvani": 30,
    "obtiznost": "střední",
    "funkce": [
      "lupa",
      "cteni",
      "text",
      "svg",
      "znacky",
      "pretahovani"
    ],
    "pdf": {
      "doporucenyPostup": "za-co-protestovali.pdf"
    },
    "uvodniObrazek": "za-co-protestovali/pic-00-1280w.jpg",
    "id": 110,
    "color": {
      "rgb": {
        "r": 158,
        "g": 158,
        "b": 158
      },
      "hsv": {
        "h": 0,
        "s": 0,
        "v": 61.96
      }
    }
  },
  "slajd": [
    {
      "class": [
        "half-slide-previous"
      ],
      "zadani": {
        "hlavni": "Kdo protestuje a za co?",
        "rozsirujici": "Označte důležité prvky na fotografii a popište je. Soustřeďte se na osoby a hesla."
      },
      "napoveda": {
        "aktivity": [
          "svg"
        ],
        "text": "Kliknutím na snímek levým tlačítkem myši označujete bod. Nakliknutím na bod pravým tlačítkem otevřete menu s nabídkou úkonů: změnit barvu bodu, (T) doplnit textový komentář, (X) smazat nakliknutý objekt."
      },
      "svg": {
        "soubory": [
          {
            "id": "svg-1",
            "soubor": "za-co-protestovali/pic-00-1280w.jpg",
            "funkce": [
              "text",
              "znacky"
            ]
          }
        ]
      },
      "popisky": [
        "„Jsem člověkem“. Stávka pracovníků veřejných služeb, Memphis, USA, 12. února 1968. Foto Richard L. Copley. Zdroj: AFSCME Communications Department Records"
      ]
    },
    {
      "class": [
        "half-slide-active"
      ],
      "zadani": {
        "hlavni": "Kdo protestuje a za co?",
        "rozsirujici": ""
      },
      "napoveda": {
        "aktivity": [
          "text"
        ],
        "text": "Do boxu pro text zapisujete odpověď na otázku, nebo jiný komentář (dle zadání)."
      },
      "uzivatelskyText": {
        "otazky": [
          {
            "id": "text-1",
            "zadani": "",
            "instrukce": "Myslím si, že…",
            "maxDelka": 400
          }
        ]
      }
    },
    {
      "class": [
        "half-slide-previous"
      ],
      "zadani": {
        "hlavni": "Kdo protestuje a za co?",
        "rozsirujici": "Označte důležité prvky na fotografii a popište je. Soustřeďte se na osoby a hesla."
      },
      "napoveda": {
        "aktivity": [
          "svg"
        ],
        "text": "Kliknutím na snímek levým tlačítkem myši označujete bod. Nakliknutím na bod pravým tlačítkem otevřete menu s nabídkou úkonů: změnit barvu bodu, (T) doplnit textový komentář, (X) smazat nakliknutý objekt."
      },
      "svg": {
        "soubory": [
          {
            "id": "svg-2",
            "soubor": "za-co-protestovali/pic-01-1280w.jpg",
            "funkce": [
              "text",
              "znacky"
            ]
          }
        ]
      },
      "popisky": [
        "„Ženská stávka za mír a rovnost!“, „Nepěstuju mužské války“, „V sesterství je síla, konec válce!“, „Vietnamské ženy jsou naše sestry.“ Protestní setkání, New York City, USA, 26. srpna 1970. Zdroj: The New York Historical Society"
      ]
    },
    {
      "class": [
        "half-slide-active"
      ],
      "zadani": {
        "hlavni": "Kdo protestuje a za co?",
        "rozsirujici": ""
      },
      "napoveda": {
        "aktivity": [
          "text"
        ],
        "text": "Do boxu pro text zapisujete odpověď na otázku, nebo jiný komentář (dle zadání)."
      },
      "uzivatelskyText": {
        "otazky": [
          {
            "id": "text-2",
            "zadani": "",
            "instrukce": "Myslím si, že…",
            "maxDelka": 400
          }
        ]
      }
    },
    {
      "class": [
        "half-slide-previous"
      ],
      "zadani": {
        "hlavni": "Kdo protestuje a za co?",
        "rozsirujici": "Označte důležité prvky na fotografii a popište je. Soustřeďte se na osoby a hesla."
      },
      "napoveda": {
        "aktivity": [
          "svg"
        ],
        "text": "Kliknutím na snímek levým tlačítkem myši označujete bod. Nakliknutím na bod pravým tlačítkem otevřete menu s nabídkou úkonů: změnit barvu bodu, (T) doplnit textový komentář, (X) smazat nakliknutý objekt."
      },
      "svg": {
        "soubory": [
          {
            "id": "svg-3",
            "soubor": "za-co-protestovali/pic-02-1280w.jpg",
            "funkce": [
              "text",
              "znacky"
            ]
          }
        ]
      },
      "popisky": [
        "„Pro rasismus tu není místo.“ Protestní setkání, Melbourne, Austrálie, 17. července 2016. Foto Scott Barbour. Zdroj: Getty Images"
      ]
    },
    {
      "class": [
        "half-slide-active"
      ],
      "zadani": {
        "hlavni": "Kdo protestuje a za co?",
        "rozsirujici": ""
      },
      "napoveda": {
        "aktivity": [
          "text"
        ],
        "text": "Do boxu pro text zapisujete odpověď na otázku, nebo jiný komentář (dle zadání)."
      },
      "uzivatelskyText": {
        "otazky": [
          {
            "id": "text-3",
            "zadani": "",
            "instrukce": "Myslím si, že…",
            "maxDelka": 400
          }
        ]
      }
    },
    {
      "class": [
        "half-slide-previous"
      ],
      "zadani": {
        "hlavni": "Kdo protestuje a za co?",
        "rozsirujici": "Označte důležité prvky na plakátu a popište je. Soustřeďte se na osoby a hesla."
      },
      "napoveda": {
        "aktivity": [
          "svg"
        ],
        "text": "Kliknutím na snímek levým tlačítkem myši označujete bod. Nakliknutím na bod pravým tlačítkem otevřete menu s nabídkou úkonů: změnit barvu bodu, (T) doplnit textový komentář, (X) smazat nakliknutý objekt."
      },
      "svg": {
        "soubory": [
          {
            "id": "svg-4",
            "soubor": "za-co-protestovali/pic-03-1280w.jpg",
            "funkce": [
              "text",
              "znacky"
            ]
          }
        ]
      },
      "popisky": [
        "„New York City: Dekolonizujte toto místo. Den původních obyvatel.“ Plakát zvoucí na protestní setkání, New York City, USA, 6. října 2017. Zdroj: Decolonize This Place"
      ]
    },
    {
      "class": [
        "half-slide-active"
      ],
      "zadani": {
        "hlavni": "Kdo protestuje a za co?",
        "rozsirujici": ""
      },
      "napoveda": {
        "aktivity": [
          "text"
        ],
        "text": "Do boxu pro text zapisujete odpověď na otázku, nebo jiný komentář (dle zadání)."
      },
      "uzivatelskyText": {
        "otazky": [
          {
            "id": "text-4",
            "zadani": "",
            "instrukce": "Myslím si, že…",
            "maxDelka": 400
          }
        ]
      }
    },
    {
      "zadani": {
        "hlavni": "K jakým protestním hnutím patří fotografie?",
        "rozsirujici": "Pomocí přetažení přiřaďte fotografie k popisům jednotlivých hnutí."
      },
      "napoveda": {
        "aktivity": [
          "razeni"
        ],
        "text": "Kliknutím na fotografie a tahem myši přesuňte fotografii na požadovanou pozici mezi ostatní položky."
      },
      "razeni": {
        "id": "razeni-1",
        "typ": "horizontalni",
        "objekty": [
          {
            "medium": "svg",
            "objekt": {
              "id": "svg-3-duplicated",
              "soubor": "za-co-protestovali/pic-02-1280w.jpg",
              "duplikovat": [
                "svg-3"
              ]
            },
            "popisek": "",
            "spravnaOdpoved": "3"
          },
          {
            "medium": "svg",
            "objekt": {
              "id": "svg-1-duplicated",
              "soubor": "za-co-protestovali/pic-00-1280w.jpg",
              "duplikovat": [
                "svg-1"
              ]
            },
            "popisek": "",
            "spravnaOdpoved": "1"
          },
          {
            "medium": "svg",
            "objekt": {
              "id": "svg-4-duplicated",
              "soubor": "za-co-protestovali/pic-03-1280w.jpg",
              "duplikovat": [
                "svg-4"
              ]
            },
            "popisek": "",
            "spravnaOdpoved": "4"
          },
          {
            "medium": "svg",
            "objekt": {
              "id": "svg-2-duplicated",
              "soubor": "za-co-protestovali/pic-01-1280w.jpg",
              "duplikovat": [
                "svg-2"
              ]
            },
            "popisek": "",
            "spravnaOdpoved": "2"
          }
        ],
        "zpetnaVazba": [
          {
            "podminka": 2,
            "text": "Opravdu? My jsme fotografie uspořádali odlišně.",
            "barva": "color-red"
          },
          {
            "podminka": 1,
            "text": "Jednu fotografii bychom uspořádali odlišně.",
            "barva": "color-orange"
          },
          {
            "podminka": 0,
            "text": "Výtečně. Uspořádali jsme fotografie stejně.",
            "barva": "color-green"
          }
        ]
      },
      "popisky": [
        "Stávka pracovníků úklidových služeb, 12. února 1968. Zaměstnanci se rozhodli pro protest po smrti svých dvou kolegů zaviněné špatnými pracovními podmínkami a kvůli dlouhodobé zkušenosti s rasismem. Protest se stal důležitou součástí afroamerického hnutí za občanská práva v USA.",
        "Boj za práva žen má dlouhou historii, na síle nabral zejména v druhé polovině 20. století. Hnutí, které se zaměřuje na rovné příležitosti žen, se nazývá feminismus. Tématy protestů jsou horší přístup ke vzdělání a uplatnění v zaměstnání pro ženy, nižší mzdy žen než mužů nebo právo žen na svobodný sexuální život a různá pojetí mateřství.",
        "Black Lives Matter je mezinárodní hnutí, které od roku 2013 nenásilnými protesty upozorňuje na neoprávněné policejní násilí a systémovou diskriminaci v oblastech vzdělávání či pracovních příležitostí namířenou proti občanům černé pleti  zejména v USA.",
        "Decolonize This Place je hnutí, které od roku 2016 bojuje za práva původních obyvatel Ameriky, lidí černé pleti a menšinových skupin v podřadném postavení. Protesty se často zaměřují na muzejní expozice, které podle členů hnutí opomíjejí některé skupiny obyvatel a jejich dějiny, které často vyprávějí z pohledu západní civilizace nebo většinové společnosti."
      ]
    },
    {
      "zadani": {
        "hlavni": "Jaký plakát nebo transparent na vás nejvíce zapůsobil a proč?",
        "rozsirujici": ""
      },
      "napoveda": {
        "aktivity": [
          "vyber",
          "text"
        ],
        "text": "Výběr provedete kliknutím na položku."
      },
      "vyber": {
        "id": "vyber-1",
        "nastaveni": {
          "layout": "horizontalni",
          "viceOdpovedi": false,
          "disableFeedback": true
        },
        "objekty": [
          {
            "objekt": "za-co-protestovali/pic-00-640w.jpg"
          },
          {
            "objekt": "za-co-protestovali/pic-01-640w.jpg"
          },
          {
            "objekt": "za-co-protestovali/pic-02-640w.jpg"
          },
          {
            "objekt": "za-co-protestovali/pic-03-640w.jpg"
          }
        ]
      },
      "uzivatelskyText": {
        "otazky": [
          {
            "id": "text-5",
            "zadani": "Zdůvodněte svůj výběr konkrétního transparentu.",
            "instrukce": "Myslím si, že…",
            "maxDelka": 400
          }
        ]
      }
    },
    {
      "zadani": {
        "hlavni": "Jaké hnutí se podle vás setkalo/setkává s úspěchem?",
        "rozsirujici": ""
      },
      "napoveda": {
        "aktivity": [
          "vyber",
          "text"
        ],
        "text": "Výběr provedete kliknutím na položku."
      },
      "vyber": {
        "id": "vyber-2",
        "nastaveni": {
          "layout": "horizontalni",
          "viceOdpovedi": false,
          "disableFeedback": true
        },
        "objekty": [
          {
            "objekt": "za-co-protestovali/pic-00-640w.jpg"
          },
          {
            "objekt": "za-co-protestovali/pic-01-640w.jpg"
          },
          {
            "objekt": "za-co-protestovali/pic-02-640w.jpg"
          },
          {
            "objekt": "za-co-protestovali/pic-03-640w.jpg"
          }
        ]
      },
      "uzivatelskyText": {
        "otazky": [
          {
            "id": "text-6",
            "zadani": "Zdůvodněte svůj výběr konkrétního hnutí.",
            "instrukce": "Myslím si, že…",
            "maxDelka": 400
          }
        ]
      }
    }
  ]
}