{
  "cviceni": {
    "version": {
      "global": "<%= version %>",
      "content": 5
    },
    "katalog": [
      "test",
      "public"
    ],
    "language": "cs",
    "slug": "rozruch-na-namesti",
    "nazev": "Rozruch na náměstí",
    "autor": [
      "Josef Řídký"
    ],
    "klicovaSlova": {
      "rvp": [
        "technika"
      ],
      "koncept": [
        "každodennost",
        "dějiny ve veřejném prostoru"
      ],
      "b4": [
        "trvání a změna"
      ],
      "historylab": [
        "formulujeme a ověřujeme hypotézu"
      ]
    },
    "casovaOsa": {
      "roky": [
        1934
      ],
      "epochy": [
        {
          "refId": "czech",
          "obdobi": [
            "první Československá republika"
          ]
        },
        {
          "refId": "world",
          "obdobi": []
        }
      ]
    },
    "anotace": {
      "ucitel": "Cvičení seznamuje žáky s počátky rozhlasu v meziválečném Československu. Žáci zkoumají dobové fotografie a zvukové záznamy a zamýšlejí se nad tím, proč lidé poslouchali rozhlas a jak mohlo tehdy nové médium ovlivnit každodenní život lidí. Cvičení obrací pozornost žáků k technologiím a jejich dopadu na moderní společnost.",
      "verejna": "Fotografie z meziválečného Československa. Proč se lidé shromáždili kolem záhadného vozu? Pokuste se s pomocí několika dalších pramenů zjistit, jaké změny lidé tehdy prožívali."
    },
    "trvani": 30,
    "obtiznost": "nízká",
    "funkce": [
      "lupa",
      "cteni",
      "text",
      "svg",
      "audio"
    ],
    "pdf": {
      "doporucenyPostup": "rozruch-na-namesti.pdf"
    },
    "uvodniObrazek": "rozruch-na-namesti/pic-01-1280w.jpg",
    "id": 56,
    "color": {
      "rgb": {
        "r": 134,
        "g": 130,
        "b": 125
      },
      "hsv": {
        "h": 33,
        "s": 6.72,
        "v": 52.55
      }
    }
  },
  "slajd": [
    {
      "zadani": {
        "hlavni": "Prohlédněte si fotografii.",
        "rozsirujici": ""
      },
      "napoveda": {
        "aktivity": [
          "lupa"
        ],
        "text": "Při kliknutí levým tlačítkem do obrazu lupa přiblíží část obrazu ve výřezu."
      },
      "prameny": [
        "rozruch-na-namesti/pic-01-1280w.jpg"
      ],
      "popisky": [
        "Brno, 1934. Zdroj: Archiv ČRo"
      ]
    },
    {
      "class": [
        "half-slide-previous"
      ],
      "zadani": {
        "hlavni": "Označte důležité prvky na fotografii a popište je.",
        "rozsirujici": ""
      },
      "napoveda": {
        "aktivity": [
          "svg"
        ],
        "text": "Kliknutím na snímek levým tlačítkem myši označujete bod. Nakliknutím na bod pravým tlačítkem otevřete menu s nabídkou úkonů: změnit barvu bodu, (T) doplnit textový komentář, (X) smazat nakliknutý objekt."
      },
      "svg": {
        "soubory": [
          {
            "id": "svg-1",
            "soubor": "rozruch-na-namesti/pic-01-1280w.jpg",
            "funkce": [
              "text",
              "znacky"
            ]
          }
        ]
      }
    },
    {
      "class": [
        "half-slide-active"
      ],
      "zadani": {
        "hlavni": "Co se děje na fotografii?",
        "rozsirujici": ""
      },
      "napoveda": {
        "aktivity": [
          "text"
        ],
        "text": "Do boxu pro text zapisujete odpověď na otázku, nebo jiný komentář (dle zadání)."
      },
      "uzivatelskyText": {
        "otazky": [
          {
            "id": "text-1",
            "zadani": "Proč se zde lidé shromáždili?",
            "instrukce": "Myslím si, že…",
            "minDelka": 10,
            "maxDelka": 400
          }
        ]
      }
    },
    {
      "zadani": {
        "hlavni": "Prozkoumejte další prameny.",
        "rozsirujici": ""
      },
      "napoveda": {
        "aktivity": [
          "lupa",
          "audio"
        ],
        "text": "Při kliknutí levým tlačítkem do obrazu lupa přiblíží část obrazu ve výřezu."
      },
      "media": {
        "nastaveni": {
          "vzhled": "normalni",
          "layout": "velka-galerie"
        },
        "soubory": [
          {
            "soubor": "rozruch-na-namesti/audio-00.mp3",
            "nazev": "Rekonstrukce prvního rozhlasového vysílání",
            "popisek": "První rozhlasové vysílání Čs. rozhlasu ve 20:15 18. května 1923 z kbelského stanu (rekonstrukce původní nahrávky). Uvádí E. Kočová-Tučková, první hlasatelka Radiojournalu. Zdroj: Archiv ČRo"
          },
          {
            "soubor": "rozruch-na-namesti/audio-01.mp3",
            "nazev": "Vzpomínky Miloše Čtrnáctého",
            "popisek": "Miloš Čtrnáctý, první programový šéf Čs. rozhlasu, vzpomíná v roce 1970, jak si lidé na počátku 20. let nedovedli představit, co přinese nástup rozhlasu. Zdroj: Archiv ČRo"
          }
        ],
        "galerie": [
          {
            "soubor": "rozruch-na-namesti/pic-03-1280w.jpg",
            "popisek": "Rozhlasový autobus značky Tatra z roku 1935 (nedatováno). Zdroj: Archiv ČRo"
          },
          {
            "soubor": "rozruch-na-namesti/pic-00-1280w.jpg",
            "popisek": "Budova Československého rozhlasu Praha, 1933. Zdroj: Archiv ČRo"
          },
          {
            "soubor": "rozruch-na-namesti/pic-02-1280w.jpg",
            "popisek": "Reklamní plakát Československého rozhlasu z 30. let. Foto Trousil. Zdroj: Archiv ČRo"
          }
        ]
      }
    },
    {
      "zadani": {
        "hlavni": "Co nového jste se dozvěděli o fotografii?",
        "rozsirujici": ""
      },
      "napoveda": {
        "aktivity": [
          "text"
        ],
        "text": "Do boxu pro text zapisujete odpověď na otázku, nebo jiný komentář (dle zadání)."
      },
      "uzivatelskyText": {
        "layout": "velka-galerie",
        "galerie": [
          {
            "typ": "svg",
            "popisek": "Hromadný poslech u rozhlasového auta. Brno, náměstí Svobody, 1934. Zdroj: Archiv ČRo",
            "objekt": {
              "id": "svg-1-duplicated",
              "soubor": "rozruch-na-namesti/pic-01-1280w.jpg",
              "duplikovat": [
                "svg-1"
              ]
            }
          }
        ],
        "otazky": [
          {
            "id": "text-2",
            "zadani": "Proč se zde lidé shromáždili?",
            "duplikovat": [
              "text-1"
            ],
            "instrukce": "Myslím si, že…",
            "minDelka": 10,
            "maxDelka": 400
          }
        ]
      }
    },
    {
      "zadani": {
        "hlavni": "Odpovězte na otázky.",
        "rozsirujici": ""
      },
      "napoveda": {
        "aktivity": [
          "text"
        ],
        "text": "Do boxu pro text zapisujete odpověď na otázku, nebo jiný komentář (dle zadání)."
      },
      "uzivatelskyText": {
        "otazky": [
          {
            "id": "text-3",
            "zadani": "Jak se změnil každodenní život lidí s nástupem rozhlasu?",
            "instrukce": "Myslím, že...",
            "minDelka": 10,
            "maxDelka": 400,
            "vyska": 4
          },
          {
            "id": "text-4",
            "zadani": "Na co byste se chtěli zeptat lidí na náměstí?",
            "instrukce": "Myslím, že...",
            "minDelka": 10,
            "maxDelka": 400,
            "vyska": 4
          }
        ]
      }
    }
  ]
}