{
  "cviceni": {
    "version": {
      "global": "<%= version %>",
      "content": 3
    },
    "katalog": [
      "test",
      "public"
    ],
    "language": "cs",
    "slug": "proc-odcinit-bilou-horu",
    "nazev": "Proč odčinit Bílou horu?",
    "autor": [
      "Michal Kurz"
    ],
    "klicovaSlova": {
      "rvp": [
        "důsledky druhé světové války"
      ],
      "koncept": [
        "vzpomínková kultura",
        "propaganda"
      ],
      "b4": [
        "dobové perspektivy"
      ],
      "historylab": [
        "odhalujeme skrytý záměr pramene"
      ]
    },
    "casovaOsa": {
      "roky": [
        1946
      ],
      "epochy": [
        {
          "refId": "czech",
          "obdobi": [
            "poválečná doba a nástup komunismu"
          ]
        },
        {
          "refId": "world",
          "obdobi": []
        }
      ]
    },
    "anotace": {
      "ucitel": "Cvičení se zaměřuje na rekonstrukci okolností vzniku pomníku, který byl roku 1946 postaven v jihočeských Malontech jako připomínka osídlení původně německé obce českým obyvatelstvem. Žáci na základě analýzy současné fotografie pomníku formulují hypotézy o jeho účelu, které následně zpřesňují na základě práce s dobovými texty (úryvek z obecní kroniky, politický projev z roku 1945). Sdělení pomníku vsazují do širšího historického kontextu poválečného období (účelové ospravedlňování konfiskací půdy a vysídlení českých Němců). Cvičení lze spojit s výkladem proměn české společnosti po skončení druhé světové války.",
      "verejna": "Uprostřed malé obce stojí pomník se záhadným nápisem. Proč chtěl někdo v roce 1945 odčiňovat bitvu, která proběhla o více než tři sta let dříve? Pečlivě si pomník prohlédněte a s pomocí dobových dokumentů odkryjte souvislosti, na které odkazuje jeho nápis. Dozvíte se víc o neklidné atmosféře prvních měsíců po skončení druhé světové války."
    },
    "trvani": 45,
    "obtiznost": "vysoká",
    "funkce": [
      "svg",
      "lupa",
      "cteni",
      "text",
      "text-editor"
    ],
    "pdf": {
      "doporucenyPostup": "proc-odcinit-bilou-horu.pdf"
    },
    "uvodniObrazek": "proc-odcinit-bilou-horu/pic-00-1280w.jpg",
    "id": 12,
    "color": {
      "rgb": {
        "r": 95,
        "g": 96,
        "b": 86
      },
      "hsv": {
        "h": 66,
        "s": 10.42,
        "v": 37.65
      }
    }
  },
  "slajd": [
    {
      "zadani": {
        "hlavni": "Prohlédněte si místo na fotografii.",
        "rozsirujici": ""
      },
      "napoveda": {
        "aktivity": [
          "lupa"
        ],
        "text": "Při kliknutí levým tlačítkem do obrazu lupa přiblíží část obrazu ve výřezu."
      },
      "prameny": [
        "proc-odcinit-bilou-horu/pic-00-1280w.jpg"
      ],
      "popisky": [
        "Náves obce Malonty, Jihočeský kraj, 2017. Foto Michal Kurz. Zdroj: archiv autora"
      ]
    },
    {
      "class": [
        "half-slide-previous"
      ],
      "zadani": {
        "hlavni": "Označte na pomníku důležité prvky a popište je.",
        "rozsirujici": ""
      },
      "napoveda": {
        "aktivity": [
          "svg"
        ],
        "text": "Tahem myši levým tlačítkem kreslíte do obrazu. Nakliknutím na nakreslený tvar pravým tlačítkem otevřete menu s nabídkou úkonů: změnit barvu tvaru, (T) doplnit textový komentář, (X) smazat nakliknutý objekt."
      },
      "svg": {
        "nastaveni": {
          "layout": "horizontalni"
        },
        "galerie": [
          {
            "soubor": "proc-odcinit-bilou-horu/pic-01-1024h.jpg",
            "popisek": ""
          },
          {
            "soubor": "proc-odcinit-bilou-horu/pic-02-1280w.jpg",
            "popisek": ""
          }
        ],
        "soubory": [
          {
            "id": "svg-1",
            "soubor": "proc-odcinit-bilou-horu/pic-00-1024w.jpg",
            "funkce": [
              "text",
              "znacky",
              "kresleni"
            ]
          }
        ]
      },
      "popisky": [
        "Náves obce Malonty, Jihočeský kraj, 2017. Foto Michal Kurz. Zdroj: archiv autora"
      ]
    },
    {
      "class": [
        "half-slide-active"
      ],
      "zadani": {
        "hlavni": "Koho nebo co by pomník mohl připomínat?",
        "rozsirujici": ""
      },
      "napoveda": {
        "aktivity": [
          "text"
        ],
        "text": "Do boxu pro text zapisujete odpověď na otázku, nebo jiný komentář (dle zadání)."
      },
      "uzivatelskyText": {
        "otazky": [
          {
            "id": "text-1",
            "zadani": "",
            "instrukce": "Myslím si, že…",
            "minDelka": 0,
            "maxDelka": 400
          }
        ]
      }
    },
    {
      "class": "half-slide-previous",
      "zadani": {
        "hlavni": "Přečtěte si zápis z obecní kroniky. Označte pasáže, které popisují okolnosti vzniku pomníku.",
        "rozsirujici": ""
      },
      "napoveda": {
        "aktivity": [
          "lupa",
          "cteni",
          "text-editor"
        ],
        "text": "Kliknutím levého tlačítka do obrazu a jeho podržením lupa přiblíží část obrazu ve výřezu. Levým tlačítkem myši zabarvíte zvolené slovo nebo slovní spojení. Otevře se vám nabídka, v níž zvolíte označovanou kategorii. Křížkem lze označení smazat."
      },
      "textovyEditor": {
        "galerie": [
          {
            "soubor": "proc-odcinit-bilou-horu/pic-06-1024h.jpg",
            "popisek": "Kronika obce Malonty, zápis z roku 1946. Zdroj: SOkA Český Krumlov"
          },
          {
            "soubor": "proc-odcinit-bilou-horu/pic-07-1024h.jpg",
            "popisek": "Kronika obce Malonty, zápis z roku 1946. Zdroj: SOkA Český Krumlov"
          }
        ],
        "texty": [
          {
            "id": 1,
            "text": "text-00",
            "funkce": "zvyraznovani",
            "menu": [
              {
                "title": "OKOLNOSTI VZNIKU POMNÍKU",
                "commandName": "okolnosti",
                "color": "blue"
              }
            ]
          }
        ]
      },
      "popisky": [
        "Kronika obce Malonty, zápis z roku 1946. Zdroj: SOkA Český Krumlov"
      ]
    },
    {
      "class": [
        "half-slide-active"
      ],
      "zadani": {
        "hlavni": "Odpovězte na otázky.",
        "rozsirujici": ""
      },
      "napoveda": {
        "aktivity": [
          "text"
        ],
        "text": "Do boxu pro text zapisujete odpověď na otázku, nebo jiný komentář (dle zadání)."
      },
      "uzivatelskyText": {
        "otazky": [
          {
            "id": "text-2",
            "zadani": "Kdo a proč postavil roku 1946 v obci pomník?",
            "instrukce": "Myslím si, že…",
            "minDelka": 0,
            "maxDelka": 400
          },
          {
            "id": "text-3",
            "zadani": "Proč byl podle vás v roce 1946 zvolen na pomník nápis „Bílá hora odčiněna“? (Nápis odkazuje k bitvě na Bílé hoře z 8. listopadu 1620.)",
            "instrukce": "Myslím si, že…",
            "minDelka": 0,
            "maxDelka": 400
          }
        ]
      }
    },
    {
      "class": "half-slide-previous",
      "zadani": {
        "hlavni": "Přečtěte si dobový text. Označte pasáže, které charakterizují období po Bílé hoře, a pasáže o období nacistické okupace.",
        "rozsirujici": ""
      },
      "napoveda": {
        "aktivity": [
          "lupa",
          "cteni",
          "text-editor"
        ],
        "text": "Kliknutím levého tlačítka do obrazu a jeho podržením lupa přiblíží část obrazu ve výřezu. Levým tlačítkem myši zabarvíte zvolené slovo nebo slovní spojení. Otevře se vám nabídka, v níž zvolíte označovanou kategorii. Křížkem lze označení smazat."
      },
      "textovyEditor": {
        "galerie": [
          {
            "soubor": "proc-odcinit-bilou-horu/pic-08-1024h.jpg",
            "popisek": "Projev ministra výživy Václava Majera na Bílé hoře 1. července 1945. Zdroj: Odčiňujeme Bílou horu, Praha 1945"
          },
          {
            "soubor": "proc-odcinit-bilou-horu/pic-09-1024h.jpg",
            "popisek": "Projev ministra výživy Václava Majera na Bílé hoře 1. července 1945. Zdroj: Odčiňujeme Bílou horu, Praha 1945"
          }
        ],
        "texty": [
          {
            "id": 2,
            "text": "text-01",
            "funkce": "zvyraznovani",
            "menu": [
              {
                "title": "POBĚLOHORSKÁ DOBA",
                "commandName": "pobelohorskadoba",
                "color": "blue"
              },
              {
                "title": "OBDOBÍ OKUPACE",
                "commandName": "okupace",
                "color": "red"
              }
            ]
          }
        ]
      },
      "popisky": [
        "Projev ministra výživy Václava Majera na Bílé hoře 1. července 1945. Zdroj: Odčiňujeme Bílou horu, Praha 1945"
      ]
    },
    {
      "class": [
        "half-slide-active"
      ],
      "zadani": {
        "hlavni": "O čem se ministr snažil přesvědčit čtenáře?",
        "rozsirujici": ""
      },
      "napoveda": {
        "aktivity": [
          "text"
        ],
        "text": "Do boxu pro text zapisujete odpověď na otázku, nebo jiný komentář (dle zadání)."
      },
      "uzivatelskyText": {
        "otazky": [
          {
            "id": "text-4",
            "zadani": "Jaké podobnosti mezi situací po Bílé hoře a nacistickou okupací v projevu zdůraznil?",
            "instrukce": "Myslím si, že…",
            "minDelka": 0,
            "maxDelka": 400
          }
        ]
      }
    },
    {
      "zadani": {
        "hlavni": "Prozkoumejte další prameny v galerii. Na základě nových informací upravte svou původní odpověď.",
        "rozsirujici": ""
      },
      "napoveda": {
        "aktivity": [
          "text"
        ],
        "text": "Do boxu pro text zapisujete odpověď na otázku, nebo jiný komentář (dle zadání)."
      },
      "uzivatelskyText": {
        "layout": "velka-galerie",
        "galerie": [
          {
            "typ": "text",
            "objekt": "„Bitva na Bílé hoře byla krátkým střetnutím, které 8. listopadu 1620 ukončilo povstání českých nekatolických stavů proti katolickému císaři Ferdinandu II. Armáda císaře a jeho spojenců v bitvě zvítězila.“",
            "popisek": "Zdroj: Michal Kurz, historik"
          },
          {
            "soubor": "proc-odcinit-bilou-horu/pic-03-1024h.jpg",
            "popisek": "Národní manifestace na Bílé hoře 1. července 1945. Zdroj: Svět v obrazech, 6. července 1945"
          },
          {
            "soubor": "proc-odcinit-bilou-horu/pic-04-1280w.jpg",
            "popisek": "Zdroj: Bílá hora odčiněna, Praha 1945"
          },
          {
            "soubor": "proc-odcinit-bilou-horu/pic-05-1280w.jpg",
            "popisek": "Dekret o vlastnictví půdy. Foto neznámý autor, 1946. Zdroj: ČTK"
          }
        ],
        "otazky": [
          {
            "id": "text-5",
            "duplikovat": [
              "text-3"
            ],
            "zadani": "Proč byl podle vás v roce 1946 zvolen na pomník nápis „Bílá hora odčiněna“?",
            "instrukce": "Myslím si, že…",
            "minDelka": 10,
            "maxDelka": 400
          }
        ]
      }
    },
    {
      "zadani": {
        "hlavni": "Odpovězte na otázky.",
        "rozsirujici": ""
      },
      "napoveda": {
        "aktivity": [
          "text"
        ],
        "text": "Do boxu pro text zapisujete odpověď na otázku, nebo jiný komentář (dle zadání)."
      },
      "uzivatelskyText": {
        "layout": "velka-galerie",
        "galerie": [
          {
            "soubor": "proc-odcinit-bilou-horu/pic-00-1280w.jpg",
            "popisek": "Náves obce Malonty, Jihočeský kraj, 2017. Foto Michal Kurz. Zdroj: archiv autora"
          }
        ],
        "otazky": [
          {
            "id": "text-6",
            "zadani": "Co pomník podle vás připomíná dnes?",
            "instrukce": "Myslím si, že…",
            "minDelka": 2,
            "maxDelka": 400
          },
          {
            "id": "text-7",
            "zadani": "Kdybyste měli možnost pomník upravit, co byste na něm změnili a proč?",
            "instrukce": "Upravit / Odstranit / Ponechat beze změny…",
            "minDelka": 2,
            "maxDelka": 400
          }
        ]
      }
    }
  ]
}