{
  "cviceni": {
    "version": {
      "global": "<%= version %>",
      "content": 2
    },
    "katalog": [
      "public",
      "test"
    ],
    "language": "cs",
    "slug": "co-se-stalo-na-letisti-croydon",
    "nazev": "Co se stalo na letišti Croydon?",
    "autor": [
      "Michal Frankl"
    ],
    "klicovaSlova": {
      "rvp": [
        "antisemitismus"
      ],
      "koncept": [
        "migrace"
      ],
      "b4": [
        "příčiny a důsledky"
      ],
      "historylab": [
        "tvoříme"
      ]
    },
    "casovaOsa": {
      "roky": [
        1939
      ],
      "epochy": [
        {
          "refId": "czech",
          "obdobi": [
            "druhá republika a tzv. protektorát"
          ]
        },
        {
          "refId": "world",
          "obdobi": [
            "druhá světová válka"
          ]
        }
      ]
    },
    "anotace": {
      "ucitel": "Cvičení pracuje s reportážní fotografií zachycující kritický moment v příběhu československého uprchlíka Oskara Goldberga, který se v roce 1939 pokusil nalézt azyl ve Velké Británii. Žáci v roli novinářů odhalují s pomocí dalších dobových dokumentů nečekanou osobní rovinu jeho příběhu a zpracovávají jej do podoby novinové zprávy.",
      "verejna": "Černobílá fotografie zachycuje skupinu lidí - co se na ní ale vlastně děje? Proč a kam nesou toho mladého muže? Vyzkoušejte si roli novinářů, prohledejte historické dokumenty a odkryjte dramatický příběh, který fotka ukrývá. Naučíte se, jak napsat zprávu do novin, a dozvíte se víc o napjaté době, kdy v Evropě sílil nacismus a blížila se světová válka."
    },
    "trvani": 45,
    "obtiznost": "vysoká",
    "funkce": [
      "lupa",
      "text",
      "svg",
      "znacky",
      "cteni",
      "text-editor"
    ],
    "pdf": {
      "doporucenyPostup": "co-se-stalo-na-letisti-croydon.pdf"
    },
    "uvodniObrazek": "co-se-stalo-na-letisti-croydon/pic-00-1280w.jpg",
    "id": 10,
    "color": {
      "rgb": {
        "r": 112,
        "g": 112,
        "b": 112
      },
      "hsv": {
        "h": 0,
        "s": 0,
        "v": 43.92
      }
    }
  },
  "slajd": [
    {
      "zadani": {
        "hlavni": "Prohlédněte si fotografii.",
        "rozsirujici": ""
      },
      "napoveda": {
        "aktivity": [
          "lupa"
        ],
        "text": "Při kliknutí levým tlačítkem do obrazu lupa přiblíží část obrazu ve výřezu."
      },
      "prameny": [
        "co-se-stalo-na-letisti-croydon/pic-00-1280w.jpg"
      ],
      "zpetnaVazba": {
        "text": "Mám prohlédnuto!"
      },
      "popisky": [
        "Uprchlík na letišti Croydon u Londýna, 31. března 1939. Zdroj: Wiener Library for the Study of the Holocaust and Genocide v Londýně"
      ]
    },
    {
      "class": [
        "half-slide-previous"
      ],
      "zadani": {
        "hlavni": "Označte osoby a prvky, které vám pomohou zjistit, co se na fotografii děje, a popište je.",
        "rozsirujici": ""
      },
      "napoveda": {
        "aktivity": [
          "svg"
        ],
        "text": "Kliknutím na snímek levým tlačítkem myši označujete bod. Nakliknutím na bod pravým tlačítkem otevřete menu s nabídkou úkonů: změnit barvu bodu, (T) doplnit textový komentář, (X) smazat nakliknutý objekt."
      },
      "svg": {
        "soubory": [
          {
            "id": "svg-1",
            "soubor": "co-se-stalo-na-letisti-croydon/pic-00-1280w.jpg",
            "funkce": [
              "text",
              "znacky"
            ]
          }
        ]
      },
      "popisky": [
        "Uprchlík na letišti Croydon u Londýna, 31. března 1939. Zdroj: Wiener Library for the Study of the Holocaust and Genocide v Londýně"
      ]
    },
    {
      "class": [
        "half-slide-active"
      ],
      "zadani": {
        "hlavni": "Sepište otázky k případu.",
        "rozsirujici": ""
      },
      "napoveda": {
        "aktivity": [
          "text"
        ],
        "text": "Do boxu pro text zapisujete odpověď na otázku, nebo jiný komentář (dle zadání)."
      },
      "uzivatelskyText": {
        "otazky": [
          {
            "id": "text-1",
            "zadani": "Představte si, že jste novináři a kolega do redakce přinesl tuto fotografii. Šéfredaktor chce, abyste k ní napsali článek. Poznamenejte si alespoň tři otázky, na které potřebujete znát odpověď.",
            "instrukce": "Potřebuji zjistit...",
            "minDelka": 10,
            "maxDelka": 999
          }
        ]
      }
    },
    {
      "class": "half-slide-previous",
      "zadani": {
        "hlavni": "Přečtěte si text a zvýrazněte důležité informace.",
        "rozsirujici": "Muž odnášený na fotografii byl Oskar Goldberg. V rodinném archivu jeho bratra Norberta se k Oskarovu příběhu dochovala řada materiálů."
      },
      "napoveda": {
        "aktivity": [
          "text-editor"
        ],
        "text": "Levým tlačítkem myši zabarvíte zvolené slovo nebo slovní spojení. Otevře se vám nabídka, v níž zvolíte označovanou kategorii. Křížkem lze označení smazat."
      },
      "textovyEditor": {
        "texty": [
          {
            "id": 0,
            "text": "text-00",
            "funkce": "zvyraznovani",
            "menu": [
              {
                "title": "Důležitá informace",
                "commandName": "dulezita-informace",
                "color": "orange"
              }
            ]
          }
        ]
      },
      "popisky": [
        "Vzpomínky byly sestaveny z rozhovorů s Norbertem Goldbergem (nahrál David Lawson, upravil Lukáš Přibyl). Zdroj: Židovské muzeum v Praze"
      ]
    },
    {
      "class": [
        "half-slide-active"
      ],
      "zadani": {
        "hlavni": "Dohledejte odpovědi na své otázky v textu vzpomínek. Můžete upravit i znění otázek.",
        "rozsirujici": ""
      },
      "napoveda": {
        "aktivity": [
          "text"
        ],
        "text": "Do boxu pro text zapisujete odpověď na otázku, nebo jiný komentář (dle zadání)."
      },
      "uzivatelskyText": {
        "otazky": [
          {
            "id": "text-2",
            "duplikovat": [
              "text-1"
            ],
            "zadani": "Mé otázky…",
            "instrukce": "",
            "minDelka": 10,
            "maxDelka": 999
          },
          {
            "id": "text-3",
            "zadani": "Má zjištění…",
            "instrukce": "",
            "minDelka": 10,
            "maxDelka": 999
          }
        ]
      }
    },
    {
      "class": "half-slide-previous",
      "zadani": {
        "hlavni": "Přečtěte si dopis a zvýrazněte důležité informace.",
        "rozsirujici": ""
      },
      "napoveda": {
        "aktivity": [
          "text-editor"
        ],
        "text": "Levým tlačítkem myši zabarvíte zvolené slovo nebo slovní spojení. Otevře se vám nabídka, v níž zvolíte označovanou kategorii. Křížkem lze označení smazat."
      },
      "textovyEditor": {
        "texty": [
          {
            "id": 1,
            "text": "text-01",
            "funkce": "zvyraznovani",
            "menu": [
              {
                "title": "Důležitá informace",
                "commandName": "dulezita-informace",
                "color": "orange"
              }
            ]
          }
        ]
      },
      "popisky": [
        "Dopis Oskaru Goldbergovi od rodiny z protektorátu, 9. května 1939. Zdroj: Židovské muzeum v Praze"
      ]
    },
    {
      "class": [
        "half-slide-active"
      ],
      "zadani": {
        "hlavni": "Doplňte svá dosavadní zjištění na základě textu dopisu. Můžete upravit i znění otázek.",
        "rozsirujici": ""
      },
      "napoveda": {
        "aktivity": [
          "text"
        ],
        "text": "Do boxu pro text zapisujete odpověď na otázku, nebo jiný komentář (dle zadání)."
      },
      "uzivatelskyText": {
        "otazky": [
          {
            "id": "text-4",
            "duplikovat": [
              "text-2"
            ],
            "zadani": "Mé otázky…",
            "instrukce": "",
            "minDelka": 10,
            "maxDelka": 999
          },
          {
            "id": "text-5",
            "duplikovat": [
              "text-3"
            ],
            "zadani": "Má zjištění...",
            "instrukce": "",
            "minDelka": 10,
            "maxDelka": 999
          }
        ]
      }
    },
    {
      "zadani": {
        "hlavni": "Využijte zjištěné informace a napište novinovou zprávu.",
        "rozsirujici": ""
      },
      "napoveda": {
        "aktivity": [
          "text"
        ],
        "text": "Do boxu pro text zapisujete odpověď na otázku, nebo jiný komentář (dle zadání)."
      },
      "uzivatelskyText": {
        "layout": "horizontalni",
        "otazky": [
          {
            "id": "text-6",
            "duplikovat": [
              "text-5"
            ],
            "zadani": "Má zjištění:",
            "instrukce": "",
            "minDelka": 10,
            "maxDelka": 999,
            "vyska": 25
          },
          {
            "id": "text-7",
            "zadani": "Moje novinová zpráva:",
            "instrukce": "",
            "minDelka": 10,
            "maxDelka": 999,
            "vyska": 25
          }
        ]
      }
    },
    {
      "zadani": {
        "hlavni": "Prohlédněte si titulní stránku novin.",
        "rozsirujici": ""
      },
      "napoveda": {
        "aktivity": [
          "lupa"
        ],
        "text": "Při kliknutí levým tlačítkem do obrazu lupa přiblíží část obrazu ve výřezu."
      },
      "prameny": [
        "co-se-stalo-na-letisti-croydon/pic-01-1024h.jpg"
      ],
      "popisky": [
        "Zdroj: Daily Mail, 31. března 1939"
      ],
      "zpetnaVazba": {
        "text": "Mám prohlédnuto!"
      }
    },
    {
      "class": " half-slide-previous",
      "zadani": {
        "hlavni": "Přečtěte si text a zvýrazněte důležité informace.",
        "rozsirujici": ""
      },
      "napoveda": {
        "aktivity": [
          "text-editor"
        ],
        "text": "Levým tlačítkem myši zabarvíte zvolené slovo nebo slovní spojení. Otevře se vám nabídka, v níž zvolíte označovanou kategorii. Křížkem lze označení smazat."
      },
      "textovyEditor": {
        "texty": [
          {
            "id": 2,
            "text": "text-02",
            "funkce": "zvyraznovani",
            "menu": [
              {
                "title": "Důležitá informace",
                "commandName": "dulezita-informace",
                "color": "orange"
              }
            ]
          }
        ]
      },
      "popisky": [
        "Zdroj: Manchester Guardian, 1. dubna 1939 (přeložil Michal Frankl)"
      ]
    },
    {
      "class": [
        "half-slide-active"
      ],
      "zadani": {
        "hlavni": "S využitím nových informací upravte svou novinovou zprávu.",
        "rozsirujici": ""
      },
      "napoveda": {
        "aktivity": [
          "text"
        ],
        "text": "Do boxu pro text zapisujete odpověď na otázku, nebo jiný komentář (dle zadání)."
      },
      "uzivatelskyText": {
        "otazky": [
          {
            "id": "text-8",
            "duplikovat": [
              "text-7"
            ],
            "zadani": "Moje novinová zpráva:",
            "instrukce": "",
            "minDelka": 10,
            "maxDelka": 999,
            "vyska": 25
          }
        ]
      }
    }
  ]
}