{
  "cviceni": {
    "version": {
      "global": "<%= version %>",
      "content": 2
    },
    "katalog": [
      "test",
      "public"
    ],
    "language": "cs",
    "slug": "k-cemu-vyzyvaly-dva-tisice-slov-a-charta-77",
    "nazev": "K čemu vyzývaly Dva tisíce slov a Charta 77?",
    "autor": [
      "Kamil Činátl",
      "Čeněk Pýcha"
    ],
    "klicovaSlova": {
      "rvp": [
        "Československo 60. léta",
        "Československo 70. léta"
      ],
      "koncept": [
        "občanská společnost"
      ],
      "b4": [
        "dobové perspektivy"
      ],
      "historylab": [
        "porovnáváme prameny"
      ]
    },
    "casovaOsa": {
      "roky": [
        1968,
        1977
      ],
      "epochy": [
        {
          "refId": "czech",
          "obdobi": [
            "pokus o reformu komunismu",
            "normalizace"
          ]
        },
        {
          "refId": "world",
          "obdobi": []
        }
      ]
    },
    "anotace": {
      "ucitel": "Cvičení využívá komparaci Dvou tisíc slov a Charty 77 k ukázce rozdílné argumentace těchto výzev. Žáci srovnávají ukázky z obou textů a pozorují, jak je ovlivnila změna politického kontextu. Cvičení lze využít pro vytvoření konkrétní představy občanského aktivismu v roce 1968 a v období normalizace.",
      "verejna": "Dvě politické výzvy, dva klíčové dokumenty doprovázející pokusy o reformu socialismu v Československu v roce 1968 a vznik opozice v období normalizace. Ponořte se hlouběji do jejich obsahu a jazyka a odhalte, jak ovlivnily svoji dobu. Jazykový rozbor nikdy nebyl užitečnější!"
    },
    "trvani": 35,
    "obtiznost": "střední",
    "funkce": [
      "lupa",
      "cteni",
      "text",
      "text-editor"
    ],
    "pdf": {
      "doporucenyPostup": "k-cemu-vyzyvaly-dva-tisice-slov-a-charta-77.pdf"
    },
    "uvodniObrazek": "k-cemu-vyzyvaly-dva-tisice-slov-a-charta-77/pic-00-1280w.jpg",
    "id": 1,
    "color": {
      "rgb": {
        "r": 209,
        "g": 209,
        "b": 209
      },
      "hsv": {
        "h": 0,
        "s": 0,
        "v": 81.96
      }
    }
  },
  "slajd": [
    {
      "zadani": {
        "hlavni": "Přečtěte si text.",
        "rozsirujici": ""
      },
      "napoveda": {
        "aktivity": [
          "lupa",
          "cteni"
        ],
        "text": "Kliknutím levého tlačítka do obrazu a jeho podržením lupa přiblíží část obrazu ve výřezu."
      },
      "textovyEditor": {
        "galerie": [
          {
            "soubor": "k-cemu-vyzyvaly-dva-tisice-slov-a-charta-77/pic-00-1280w.jpg",
            "popisek": "Dva tisíce slov. Zdroj: Literární noviny I./1968, č. 18"
          }
        ],
        "texty": [
          {
            "id": 0,
            "text": "text-00",
            "funkce": "cteni"
          }
        ],
        "popisky": [
          "Dva tisíce slov, Zdroj: Literární listy I/18, 27. 6. 1968, s. 1."
        ]
      }
    },
    {
      "zadani": {
        "hlavni": "Přečtěte si text.",
        "rozsirujici": ""
      },
      "napoveda": {
        "aktivity": [
          "lupa",
          "cteni"
        ],
        "text": "Kliknutím levého tlačítka do obrazu a jeho podržením lupa přiblíží část obrazu ve výřezu."
      },
      "textovyEditor": {
        "galerie": [
          {
            "soubor": "k-cemu-vyzyvaly-dva-tisice-slov-a-charta-77/pic-01-1024h.jpg",
            "popisek": "Prohlášení Charty 77. Zdroj: ABS"
          }
        ],
        "texty": [
          {
            "id": 0,
            "text": "text-01",
            "funkce": "cteni"
          }
        ]
      }
    },
    {
      "zadani": {
        "hlavni": "K čemu texty čtenáře vyzývají? Označte v obou ukázkách tři klíčové pasáže.",
        "rozsirujici": "Vybírejte z předznačených výrazů."
      },
      "napoveda": {
        "aktivity": [
          "text-editor"
        ],
        "text": "Výběr provedete kliknutím na předznačené výrazy."
      },
      "textovyEditor": {
        "texty": [
          {
            "id": 1,
            "text": "text-00",
            "nazev": "Dva tisíce slov",
            "funkce": "predznaceny",
            "predznaceni": [
              {
                "vyraz": "Obracíme se na vás",
                "data": {
                  "osoba": "my",
                  "slovesnyZpusob": "oznamovací"
                }
              },
              {
                "vyraz": "promluvili jsme",
                "data": {
                  "osoba": "my",
                  "slovesnyZpusob": "oznamovací"
                }
              },
              {
                "vyraz": "musíme jedině dokončit",
                "data": {
                  "osoba": "my",
                  "slovesnyZpusob": "rozkazovací"
                }
              },
              {
                "vyraz": "Žádejme odchod lidí",
                "data": {
                  "osoba": "my",
                  "slovesnyZpusob": "rozkazovací"
                }
              },
              {
                "vyraz": "ověřujme si je",
                "data": {
                  "osoba": "my",
                  "slovesnyZpusob": "rozkazovací"
                }
              },
              {
                "vyraz": "vysílejme delegace",
                "data": {
                  "osoba": "my",
                  "slovesnyZpusob": "rozkazovací"
                }
              },
              {
                "vyraz": "zveřejňujme",
                "data": {
                  "osoba": "my",
                  "slovesnyZpusob": "rozkazovací"
                }
              },
              {
                "vyraz": "Podporujme orgány bezpečnosti",
                "data": {
                  "osoba": "my",
                  "slovesnyZpusob": "rozkazovací"
                }
              },
              {
                "vyraz": "Vyhýbejme se sousedským hádkám",
                "data": {
                  "osoba": "my",
                  "slovesnyZpusob": "rozkazovací"
                }
              },
              {
                "vyraz": "neožírejme se",
                "data": {
                  "osoba": "my",
                  "slovesnyZpusob": "rozkazovací"
                }
              },
              {
                "vyraz": "Prozrazujme fízly",
                "data": {
                  "osoba": "my",
                  "slovesnyZpusob": "rozkazovací"
                }
              }
            ]
          },
          {
            "id": 2,
            "text": "text-01",
            "nazev": "Charta 77",
            "funkce": "predznaceny",
            "predznaceni": [
              {
                "vyraz": "vytvořit CHARTU 77",
                "data": {
                  "osoba": "my",
                  "slovesnyZpusob": "oznamovací"
                }
              },
              {
                "vyraz": "veřejně oznamujeme",
                "data": {
                  "osoba": "my",
                  "slovesnyZpusob": "oznamovací"
                }
              },
              {
                "vyraz": "spojuje vůle",
                "data": {
                  "osoba": "ono",
                  "slovesnyZpusob": "oznamovací"
                }
              },
              {
                "vyraz": "se zasazovat o respektování občanských a lidských práv",
                "data": {
                  "osoba": "my",
                  "slovesnyZpusob": "oznamovací"
                }
              },
              {
                "vyraz": "sdílejí starost",
                "data": {
                  "osoba": "oni",
                  "slovesnyZpusob": "oznamovací"
                }
              },
              {
                "vyraz": "účastní se její práce",
                "data": {
                  "osoba": "my",
                  "slovesnyZpusob": "oznamovací"
                }
              },
              {
                "vyraz": "podporuje ji",
                "data": {
                  "osoba": "my",
                  "slovesnyZpusob": "oznamovací"
                }
              },
              {
                "vyraz": "Věříme, že CHARTA 77 přispěje",
                "data": {
                  "osoba": "my",
                  "slovesnyZpusob": "oznamovací"
                }
              },
              {
                "vyraz": "Každý nese svůj díl odpovědnosti",
                "data": {
                  "osoba": "my",
                  "slovesnyZpusob": "oznamovací"
                }
              },
              {
                "vyraz": "souhlasí s její myšlenkou",
                "data": {
                  "osoba": "my",
                  "slovesnyZpusob": "oznamovací"
                }
              }
            ]
          }
        ]
      }
    },
    {
      "zadani": {
        "hlavni": "Ve vybraných pasážích se zaměřte na slovesa.",
        "rozsirujici": "Abychom lépe porozuměli tomu, koho texty oslovují a jak se vztahují ke skutečnosti, určete u sloves osobu a způsob."
      },
      "napoveda": {
        "aktivity": [
          "analyticka-tabulka"
        ],
        "text": "Vyberte po jedné možnosti z rolovacích nabídek."
      },
      "novaTabulka": {
        "tabulky": [
          {
            "id": "nova-tabulka-1",
            "dataFrom": [
              "1",
              "2"
            ],
            "columns": [
              {
                "id": "text",
                "name": "Z textu",
                "type": {
                  "name": "nazev",
                  "type": "text"
                },
                "bg-color": "",
                "values": []
              },
              {
                "id": "pasaz",
                "name": "Označené pasáže",
                "type": {
                  "name": "dup-text",
                  "type": "tag"
                },
                "bg-color": "",
                "values": []
              },
              {
                "id": "osoba",
                "name": "Slovesná osoba",
                "type": {
                  "name": "select",
                  "options": [
                    "Vyberte osobu",
                    "já",
                    "ty",
                    "on/ona/ono",
                    "my",
                    "vy",
                    "oni/ony/ona",
                    "infinitiv"
                  ]
                },
                "bg-color": "",
                "values": []
              },
              {
                "id": "zpusob",
                "name": "Slovesný způsob",
                "type": {
                  "name": "select",
                  "options": [
                    "Vyberte způsob",
                    "oznamovací",
                    "podmiňovací",
                    "rozkazovací",
                    "infinitiv"
                  ]
                },
                "bg-color": "",
                "values": []
              }
            ]
          }
        ]
      }
    },
    {
      "class": [
        "test-kviz",
        "half-slide-previous"
      ],
      "zadani": {
        "hlavni": "Jaké závěry vyplývají z rozboru textů?",
        "rozsirujici": "Označte správná tvrzení."
      },
      "napoveda": {
        "aktivity": [
          "analyticka-tabulka"
        ],
        "text": "Vyberte jednu z možností."
      },
      "testKviz": {
        "id": "kviz-1",
        "zpetnaVazba": [
          {
            "podminka": [
              0,
              1
            ],
            "text": "Opravdu? My jsme došli k odlišným závěrům.",
            "barva": "color-red"
          },
          {
            "podminka": [
              2,
              3
            ],
            "text": "V některých závěrech se lišíme.",
            "barva": "color-orange"
          },
          {
            "podminka": [
              4
            ],
            "text": "Výtečně. Došli jsme ke stejným závěrům.",
            "barva": "color-green"
          }
        ],
        "zadani": [
          {
            "otazka": "V kterém z textů je větší počet sloves, která označují občanské aktivity?",
            "spravnaOdpoved": 1,
            "odpovedi": [
              {
                "text": "Dva tisíce slov"
              },
              {
                "text": "Charta"
              }
            ]
          },
          {
            "otazka": "Kde převládá rozkazovací způsob?",
            "spravnaOdpoved": 1,
            "odpovedi": [
              {
                "text": "Dva tisíce slov"
              },
              {
                "text": "Charta"
              }
            ]
          },
          {
            "otazka": "Který text klade větší důraz na zapojení čtenáře?",
            "spravnaOdpoved": 1,
            "odpovedi": [
              {
                "text": "Dva tisíce slov"
              },
              {
                "text": "Charta"
              }
            ]
          },
          {
            "otazka": "Který z textů obsahuje více expresivních výrazů, a je tak naléhavější?",
            "spravnaOdpoved": 1,
            "odpovedi": [
              {
                "text": "Dva tisíce slov"
              },
              {
                "text": "Charta"
              }
            ]
          }
        ]
      }
    },
    {
      "class": [
        "half-slide-active"
      ],
      "zadani": {
        "hlavni": "Porovnejte výzvy.",
        "rozsirujici": ""
      },
      "napoveda": {
        "aktivity": [
          "text"
        ],
        "text": "Do boxu pro text zapisujete odpověď na otázku, nebo jiný komentář (dle zadání)."
      },
      "uzivatelskyText": {
        "otazky": [
          {
            "id": "text-1",
            "zadani": "V čem se výzvy Dva tisíce slov a Charta 77 liší?",
            "instrukce": "Myslím si, že…",
            "minDelka": 10,
            "maxDelka": 500
          },
          {
            "id": "text-2",
            "zadani": "K čemu tyto dokumenty vyzývaly?",
            "instrukce": "Dva tisíce slov…\n\n\nCharta 77…",
            "minDelka": 10,
            "maxDelka": 500
          }
        ]
      }
    }
  ]
}